39384 30887
42778 36916
47794 38336
35387 10493
16650 41422
2363 40028
18691 20060
47764 13927
30541 33427
39173 5737
5212 45369
2568 6430
15783 21531
22863 15124
24068 3136
13930 29803
34023 23059
33070 48168
11394 18457
25012 28043
26230 27374
34422 44920
13785 48538
25199 44325
48316 14371
16414 3527
26092 18981
9957 41874
6863 49171
6997 47282
2306 20926
27085 36328
10337 26506
847 21730
11314 25858
16125 3896
19583 546
48815 33368
15435 40365
44044 13751
21088 26809
17277 47179
45789 43585
5404 2652
42755 12400
49933 45061
49677 43369
47740 10013
36227 48587
48095 47540
40796 30571
1435 10379
47468 16602
10098 12903
23318 20493
26653 10757
47302 10281
24287 9442
3866 29690
28445 46620
8441 44730
8032 8118
38098 5772
34482 40676
20710 48928
4568 27857
29498 22354
4587 26966
5307 14684
6220 28625
1529 32872
5733 48830
9504 30020
8271 13369
9709 36716
26341 18150
47797 724
42619 2246
22847 43452
42922 43556
42380 47489
37765 38229
19842 42351
15194 41501
7035 37765
20125 24915
36988 25857
23744 46492
22228 48366
9860 31937
1433 2552
16438 49229
3276 25408
1475 26122
18859 44396
36030 11238
8236 23794
15819 44429
16144 31012
35929 39530
18777 22405
14444 5764
14614 4539
18607 36841
2905 44819
35129 20689
47370 17918
19918 16997
43325 37744
9471 12184
48491 45500
39773 6726
35645 5591
17506 18140
2955 19787
7670 38083
8543 38465
10198 39508
9356 28805
26349 28612
23623 27829
49300 37344
45747 35569
4341 5423
23312 13811
17606 21802
25662 23731
44879 11306
29321 28737
29445 48627
48523 3466
36709 23417
8283 13259
12925 17638
42063 5625
12601 32037
33453 11900
19380 45551
47469 40072
974 37132
3882 34931
8934 45895
8661 20164
7200 37982
48900 2997
2960 13774
22814 39669
37191 31096
2927 16467
15085 11341
22091 27685
43377 5543
5937 29108
17446 19757
19180 18419
6888 39413
3349 32173
1660 12010
2337 25211
16343 17588
28207 19302
47714 17373
25322 1256
14820 44600
17722 29905
5940 39812
23941 15668
11706 46229
11128 29151
15985 46659
13921 39225
2423 17270
21397 4082
45631 40085
29293 11973
7673 23851
47626 5386
41223 39300
6641 6043
33899 40714
2299 6191
30525 42591
38210 8582
38820 49337
37733 21156
45995 18005
10380 14770
35274 31777
18851 47256
21861 48143
25580 45885
21994 23206
17622 29568
12505 40614
1962 12755
31327 4260
18945 28203
13203 23507
36785 2022
22843 40869
39529 35190
8873 49909
49959 10499
48037 18809
7754 36249
33304 33334
32134 21649
22891 49755
17568 1747
40369 19530
14501 38047
23789 49798
16250 36991
23304 3034
5364 12498
10254 44893
47687 19126
11153 13997
45976 9189
49158 3730
45437 32461
3415 43922
20461 26305
10029 38028
28051 16749
7557 8903
4795 47698
8700 21044
1040 32003
40429 6404
44501 682
17648 8539
36160 45152
22536 32135
4340 21693
2216 16128
20505 5630
10050 40965
48286 36430
45344 26336
3178 2901
35239 7972
16950 10290
45368 17989
42293 35796
40744 3145
2830 8391
11683 5341
3542 570
3827 24233
